…
Usage
=====

`ukp_neighbourhood`, retrieves a list of neighbourhoods for a force, <https://data.police.uk/docs/method/neighbourhoods/>

This returns a tibble with columns `id` and `name`.

``` r

library(ukpolice)
ukp_neighbourhood("leicestershire")
#> No encoding supplied: defaulting to UTF-8.
#> # A tibble: 67 × 2
#>       id                           name
#>    <chr>                          <chr>
#> 1   NC04                    City Centre
#> 2   NC66               Cultural Quarter
#> 3   NC67                      Riverside
#> 4   NC68                 Clarendon Park
#> 5   NE09                 Belgrave South
#> 6   NE10                 Belgrave North
#> 7   NE11                    Rushey Mead
#> 8   NE12                    Humberstone
#> 9   NE13 Northfields, Tailby and Morton
#> 10  NE14                     Thurncourt
#> # ... with 57 more rows
```
…
#> Warning in bind_rows_(x, .id): Unequal factor levels: coercing to character

#> Warning in bind_rows_(x, .id): Unequal factor levels: coercing to character

#> Warning in bind_rows_(x, .id): Unequal factor levels: coercing to character

#> Warning in bind_rows_(x, .id): Unequal factor levels: coercing to character

#> Warning in bind_rows_(x, .id): Unequal factor levels: coercing to character

#> Warning in bind_rows_(x, .id): Unequal factor levels: coercing to character

#> Warning in bind_rows_(x, .id): Unequal factor levels: coercing to character
#> # A tibble: 1,386 × 13
#>                 category context       id location_subtype location_type
#>                    <chr>   <chr>    <chr>            <chr>         <chr>
#> 1  anti-social-behaviour         50559804                          Force
#> 2  anti-social-behaviour         50565912                          Force
#> 3  anti-social-behaviour         50562730                          Force
#> 4  anti-social-behaviour         50562692                          Force
#> 5  anti-social-behaviour         50562689                          Force
#> 6  anti-social-behaviour         50562680                          Force
#> 7  anti-social-behaviour         50565899                          Force
#> 8  anti-social-behaviour         50559811                          Force
#> 9  anti-social-behaviour         50559816                          Force
#> 10 anti-social-behaviour         50562670                          Force
#> # ... with 1,376 more rows, and 8 more variables: latitude <chr>,
#> #   longitude <chr>, street_id <chr>, street_name <chr>, date <chr>,
#> #   persistent_id <chr>, outcome_category <chr>, outcome_date <chr>
```
…
