Access UK Police Data • ukpolice
…
#install.packages("devtools")
devtools::install_github("njtierney/ukpolice")

 Usage

 Neighbourhood

ukp_neighbourhood(), retrieves a list of neighbourhoods for a force, https://data.police.uk/docs/method/neighbourhoods/

This returns a tibble with columns id and name.

library(ukpolice)
ukp_neighbourhood("leicestershire")
#> No encoding supplied: defaulting to UTF-8.
#> # A tibble: 67 × 2
#>       id                           name
#>    <chr>                          <chr>
#> 1   NC04                    City Centre
#> 2   NC66               Cultural Quarter
#> 3   NC67                      Riverside
#> 4   NC68                 Clarendon Park
#> 5   NE09                 Belgrave South
#> 6   NE10                 Belgrave North
#> 7   NE11                    Rushey Mead
#> 8   NE12                    Humberstone
#> 9   NE13 Northfields, Tailby and Morton
#> 10  NE14                     Thurncourt
#> # ... with 57 more rows
…
